<?xml version="1.0" encoding="UTF-8" standalone="no"?>
<!-- Created with Inkscape (http://www.inkscape.org/) -->

<svg
   xmlns:dc="http://purl.org/dc/elements/1.1/"
   xmlns:cc="http://creativecommons.org/ns#"
   xmlns:rdf="http://www.w3.org/1999/02/22-rdf-syntax-ns#"
   xmlns:svg="http://www.w3.org/2000/svg"
   xmlns="http://www.w3.org/2000/svg"
   xmlns:sodipodi="http://sodipodi.sourceforge.net/DTD/sodipodi-0.dtd"
   xmlns:inkscape="http://www.inkscape.org/namespaces/inkscape"
   width="32.007656"
   height="29.6875"
   id="svg2"
   version="1.1"
   inkscape:version="0.48.4 r9939"
   sodipodi:docname="calls1.svg">
  <defs
     id="defs4">
    <inkscape:path-effect
       effect="spiro"
       id="path-effect2992"
       is_visible="true" />
    <inkscape:path-effect
       effect="spiro"
       id="path-effect2987"
       is_visible="true" />
  </defs>
  <sodipodi:namedview
     id="base"
     pagecolor="#ffffff"
     bordercolor="#666666"
     borderopacity="1.0"
     inkscape:pageopacity="0.0"
     inkscape:pageshadow="2"
     inkscape:zoom="16"
     inkscape:cx="20.384987"
     inkscape:cy="12.791181"
     inkscape:document-units="px"
     inkscape:current-layer="layer1"
     showgrid="false"
     inkscape:window-width="1301"
     inkscape:window-height="744"
     inkscape:window-x="65"
     inkscape:window-y="24"
     inkscape:window-maximized="1"
     fit-margin-top="0"
     fit-margin-left="0"
     fit-margin-right="0"
     fit-margin-bottom="0" />
  <metadata
     id="metadata7">
    <rdf:RDF>
      <cc:Work
         rdf:about="">
        <dc:format>image/svg+xml</dc:format>
        <dc:type
           rdf:resource="http://purl.org/dc/dcmitype/StillImage" />
      </cc:Work>
    </rdf:RDF>
  </metadata>
  <g
     inkscape:label="Layer 1"
     inkscape:groupmode="layer"
     id="layer1"
     transform="translate(-37.679915,-548.90625)">
    <path
       style="fill:#ffffff;stroke:none;stroke-width:1px;stroke-linecap:butt;stroke-linejoin:miter;stroke-opacity:1;fill-opacity:1"
       d="m 63.730005,578.09557 c 0.796568,-0.0588 1.58066,-0.28173 2.288973,-0.65088 0.953412,-0.49688 1.766087,-1.26037 2.321446,-2.18095 0.555359,-0.92058 0.851762,-1.99552 0.846689,-3.07063 l -7.328685,-2.88529 c -0.493595,0.36158 -0.92539,0.8073 -1.271127,1.31212 -0.490223,0.71579 -0.805257,1.55064 -0.910116,2.41185 -3.808738,-1.53237 -7.267253,-3.92801 -10.040715,-6.95498 -2.083664,-2.27412 -3.781873,-4.90054 -5.000642,-7.73389 0.827262,-0.24999 1.608436,-0.65164 2.293082,-1.17901 0.385727,-0.29712 0.740964,-0.6338 1.058334,-1.00304 l -4.021679,-6.75726 c -1.162417,0.0132 -2.31838,0.38302 -3.272543,1.04707 -0.954163,0.66405 -1.702562,1.61953 -2.118725,2.70498 -0.358355,0.93467 -0.471041,1.9623 -0.323751,2.95242 1.69001,4.79643 4.477279,9.20258 8.087272,12.78446 4.724134,4.68734 10.859373,7.93379 17.392187,9.20303"
       id="path2990"
       inkscape:path-effect="#path-effect2992"
       inkscape:original-d="m 63.730005,578.09557 c 0,0 1.658987,-0.16977 2.288973,-0.65088 1.626202,-1.24189 3.168135,-5.25158 3.168135,-5.25158 l -7.328685,-2.88529 c 0,0 -0.945097,0.79813 -1.271127,1.31212 -0.460445,0.7259 -0.910116,2.41185 -0.910116,2.41185 0,0 -7.208989,-4.0322 -10.040715,-6.95498 -2.137108,-2.20582 -5.000642,-7.73389 -5.000642,-7.73389 0,0 1.592138,-0.68209 2.293082,-1.17901 0.396641,-0.2812 1.058334,-1.00304 1.058334,-1.00304 l -4.021679,-6.75726 c 0,0 -4.273519,1.8719 -5.391268,3.75205 -0.506224,0.85152 -0.323751,2.95242 -0.323751,2.95242 0.877023,0.0746 4.357113,9.06176 8.087272,12.78446 3.897491,3.88971 13.494154,5.31426 17.392187,9.20303 z"
       inkscape:connector-curvature="0"
       sodipodi:nodetypes="caccacacaccacsc" />
  </g>
</svg>
