<?xml version="1.0" encoding="UTF-8" standalone="no"?>
<!-- Generator: Adobe Illustrator 16.0.0, SVG Export Plug-In . SVG Version: 6.00 Build 0)  -->

<svg
   xmlns:dc="http://purl.org/dc/elements/1.1/"
   xmlns:cc="http://creativecommons.org/ns#"
   xmlns:rdf="http://www.w3.org/1999/02/22-rdf-syntax-ns#"
   xmlns:svg="http://www.w3.org/2000/svg"
   xmlns="http://www.w3.org/2000/svg"
   xmlns:sodipodi="http://sodipodi.sourceforge.net/DTD/sodipodi-0.dtd"
   xmlns:inkscape="http://www.inkscape.org/namespaces/inkscape"
   version="1.1"
   id="Layer_1"
   x="0px"
   y="0px"
   width="32.000004"
   height="29.688709"
   viewBox="0 0 32.000004 29.688709"
   enable-background="new 0 0 512 512"
   xml:space="preserve"
   inkscape:version="0.48.4 r9939"
   sodipodi:docname="contacts.svg"><metadata
     id="metadata15"><rdf:RDF><cc:Work
         rdf:about=""><dc:format>image/svg+xml</dc:format><dc:type
           rdf:resource="http://purl.org/dc/dcmitype/StillImage" /><dc:title></dc:title></cc:Work></rdf:RDF></metadata><defs
     id="defs13" /><sodipodi:namedview
     pagecolor="#ffffff"
     bordercolor="#666666"
     borderopacity="1"
     objecttolerance="10"
     gridtolerance="10"
     guidetolerance="10"
     inkscape:pageopacity="0"
     inkscape:pageshadow="2"
     inkscape:window-width="1301"
     inkscape:window-height="744"
     id="namedview11"
     showgrid="false"
     fit-margin-top="0"
     fit-margin-left="0"
     fit-margin-right="0"
     fit-margin-bottom="0"
     inkscape:zoom="3.6875"
     inkscape:cx="37.041968"
     inkscape:cy="14.613359"
     inkscape:window-x="65"
     inkscape:window-y="24"
     inkscape:window-maximized="1"
     inkscape:current-layer="Layer_1" /><path
     d="M 31.411795,25.42331 C 30.989348,24.15574 30.2236,22.87714 29.094202,22.13306 26.921075,20.69057 24.389113,19.9211 21.94088,19.09733 c -0.590602,-0.20691 -1.19068,-0.43247 -1.730408,-0.7534 -0.481865,-0.28629 -0.662758,-0.87348 -0.77468,-1.3892 -0.0494,-0.27278 -0.07969,-0.5527 -0.09538,-0.82804 1.775301,-2.42851 2.952933,-6.39185 2.952933,-9.64164 C 22.293345,1.41336 19.427635,0 15.893188,0 12.358041,0 9.4929528,1.41127 9.4929528,6.48296 c 0,3.36606 1.2625252,7.49514 3.1447782,9.89382 -0.01716,0.18936 -0.03969,0.37872 -0.07379,0.56723 -0.112155,0.51565 -0.292815,1.09188 -0.774369,1.3781 -0.540349,0.32101 -1.14035,0.52473 -1.731029,0.73165 -2.4482342,0.82369 -4.9801182,1.55005 -7.1527012,2.99254 -1.13002,0.74408 -1.895379,2.10944 -2.31751503,3.37701 -0.434719,1.31557 -0.612505,2.94501 -0.585709,4.2654 H 15.999364 31.997348 c 0.02703,-1.32031 -0.151145,-2.94975 -0.585553,-4.2654 z"
     id="path9"
     inkscape:connector-curvature="0"
     style="fill:#ffffff;fill-opacity:1" /></svg>