<?xml version="1.0" encoding="UTF-8" standalone="no"?>
<!-- Created with Inkscape (http://www.inkscape.org/) -->

<svg
   xmlns:dc="http://purl.org/dc/elements/1.1/"
   xmlns:cc="http://creativecommons.org/ns#"
   xmlns:rdf="http://www.w3.org/1999/02/22-rdf-syntax-ns#"
   xmlns:svg="http://www.w3.org/2000/svg"
   xmlns="http://www.w3.org/2000/svg"
   xmlns:sodipodi="http://sodipodi.sourceforge.net/DTD/sodipodi-0.dtd"
   xmlns:inkscape="http://www.inkscape.org/namespaces/inkscape"
   width="31.004599"
   height="30.993641"
   id="svg2"
   version="1.1"
   inkscape:version="0.48.4 r9939"
   sodipodi:docname="options-silver.svg">
  <defs
     id="defs4">
    <marker
       inkscape:stockid="Arrow1Lstart"
       orient="auto"
       refY="0"
       refX="0"
       id="Arrow1Lstart"
       style="overflow:visible">
      <path
         id="path3772"
         d="M 0,0 5,-5 -12.5,0 5,5 0,0 z"
         style="fill-rule:evenodd;stroke:#000000;stroke-width:1pt"
         transform="matrix(0.8,0,0,0.8,10,0)"
         inkscape:connector-curvature="0" />
    </marker>
  </defs>
  <sodipodi:namedview
     id="base"
     pagecolor="#ffffff"
     bordercolor="#666666"
     borderopacity="1.0"
     inkscape:pageopacity="0.0"
     inkscape:pageshadow="2"
     inkscape:zoom="11.2"
     inkscape:cx="33.8113"
     inkscape:cy="15.09195"
     inkscape:document-units="px"
     inkscape:current-layer="layer1"
     showgrid="false"
     inkscape:object-nodes="true"
     fit-margin-left="2"
     fit-margin-top="2"
     fit-margin-right="2"
     fit-margin-bottom="2"
     inkscape:window-width="1301"
     inkscape:window-height="744"
     inkscape:window-x="65"
     inkscape:window-y="24"
     inkscape:window-maximized="1" />
  <metadata
     id="metadata7">
    <rdf:RDF>
      <cc:Work
         rdf:about="">
        <dc:format>image/svg+xml</dc:format>
        <dc:type
           rdf:resource="http://purl.org/dc/dcmitype/StillImage" />
        <dc:title></dc:title>
      </cc:Work>
    </rdf:RDF>
  </metadata>
  <g
     inkscape:label="Layer 1"
     inkscape:groupmode="layer"
     id="layer1"
     transform="translate(-60.141997,-671.21851)">
    <path
       style="fill:#669999;fill-opacity:1;fill-rule:nonzero;stroke:#669999;stroke-width:0.69999999;stroke-linecap:butt;stroke-linejoin:miter;stroke-miterlimit:4;stroke-opacity:1;stroke-dasharray:none;stroke-dashoffset:0.64999998;marker-start:none;marker-end:none"
       d="m 75.45203,673.56096 c 1.864545,-0.0339 1.07749,5.22147 2.840978,5.83482 1.763487,0.61334 4.338428,-4.01996 5.788155,-2.83356 1.449726,1.18644 -2.492964,4.70041 -1.531854,6.31675 0.961108,1.61638 5.878203,-0.25888 6.234767,1.59248 0.356563,1.85135 -4.896933,1.97993 -5.187918,3.843 -0.290987,1.86302 4.667501,3.62327 3.764063,5.27333 -0.90344,1.65002 -5.009573,-1.66694 -6.416496,-0.42896 -1.406926,1.23802 1.272823,5.81012 -0.467891,6.48676 -1.740712,0.67663 -2.778177,-4.53385 -4.642725,-4.50016 -1.864545,0.0339 -2.717422,5.27828 -4.480909,4.66495 -1.763487,-0.61337 0.753158,-5.27932 -0.696572,-6.46572 -1.449726,-1.18639 -5.436155,2.27675 -6.397264,0.66037 -0.961106,-1.61636 3.932084,-3.55452 3.575518,-5.40589 -0.356565,-1.85135 -5.611251,-1.79017 -5.320267,-3.65319 0.290988,-1.86307 5.271142,-0.16657 6.17458,-1.81661 0.90344,-1.65004 -3.160779,-5.01941 -1.753857,-6.25741 1.406924,-1.23799 4.143778,3.29936 5.884489,2.62272 1.740711,-0.67665 0.768654,-5.9 2.633203,-5.93368 z"
       id="path2987"
       inkscape:connector-curvature="0" />
    <path
       sodipodi:type="arc"
       style="fill:#ffffff;fill-opacity:1;fill-rule:nonzero;stroke:#669999;stroke-width:11.84363174;stroke-linecap:butt;stroke-linejoin:miter;stroke-miterlimit:4;stroke-opacity:1;stroke-dasharray:none;stroke-dashoffset:0.64999998"
       id="path4396"
       sodipodi:cx="214.15234"
       sodipodi:cy="563.44836"
       sodipodi:rx="47.477169"
       sodipodi:ry="46.467018"
       d="m 261.62951,563.44836 c 0,25.66303 -21.25625,46.46702 -47.47717,46.46702 -26.22091,0 -47.47717,-20.80399 -47.47717,-46.46702 0,-25.66302 21.25626,-46.46701 47.47717,-46.46701 26.22092,0 47.47717,20.80399 47.47717,46.46701 z"
       transform="matrix(0.0835305,0,0,0.08534636,57.763446,638.62225)" />
  </g>
</svg>
