<?xml version="1.0" encoding="UTF-8" standalone="no"?>
<!-- Created with Inkscape (http://www.inkscape.org/) -->

<svg
   xmlns:dc="http://purl.org/dc/elements/1.1/"
   xmlns:cc="http://creativecommons.org/ns#"
   xmlns:rdf="http://www.w3.org/1999/02/22-rdf-syntax-ns#"
   xmlns:svg="http://www.w3.org/2000/svg"
   xmlns="http://www.w3.org/2000/svg"
   xmlns:sodipodi="http://sodipodi.sourceforge.net/DTD/sodipodi-0.dtd"
   xmlns:inkscape="http://www.inkscape.org/namespaces/inkscape"
   width="34.027351"
   height="42.79319"
   id="svg2990"
   version="1.1"
   inkscape:version="0.48.4 r9939"
   sodipodi:docname="profile-female-new1.svg">
  <defs
     id="defs2992" />
  <sodipodi:namedview
     id="base"
     pagecolor="#ffffff"
     bordercolor="#666666"
     borderopacity="1.0"
     inkscape:pageopacity="0.0"
     inkscape:pageshadow="2"
     inkscape:zoom="15.839192"
     inkscape:cx="17.781006"
     inkscape:cy="21.509298"
     inkscape:document-units="px"
     inkscape:current-layer="layer1"
     showgrid="false"
     fit-margin-top="1"
     fit-margin-left="1"
     fit-margin-right="1"
     fit-margin-bottom="1"
     inkscape:window-width="1301"
     inkscape:window-height="744"
     inkscape:window-x="65"
     inkscape:window-y="24"
     inkscape:window-maximized="1" />
  <metadata
     id="metadata2995">
    <rdf:RDF>
      <cc:Work
         rdf:about="">
        <dc:format>image/svg+xml</dc:format>
        <dc:type
           rdf:resource="http://purl.org/dc/dcmitype/StillImage" />
        <dc:title></dc:title>
      </cc:Work>
    </rdf:RDF>
  </metadata>
  <g
     inkscape:label="Layer 1"
     inkscape:groupmode="layer"
     id="layer1"
     transform="translate(-312.79882,-304.05056)">
    <path
       style="fill:#339966;stroke:#339966;stroke-width:0.50000000000000000;stroke-linecap:butt;stroke-linejoin:miter;stroke-miterlimit:4;stroke-opacity:1;stroke-dasharray:none;fill-opacity:1"
       d="m 331.46492,305.86537 6.7e-4,2.7e-4 c 1.08335,0.34638 1.84839,0.67872 2.64506,1.40623 0.86499,0.78986 1.38386,1.4172 2.00005,2.32992 0.60379,0.89436 1.01319,2.18461 1.09805,2.59508 l 0.25508,1.23377 0.22444,2.98095 0.43169,2.64278 c 0.67587,3.71194 1.50934,5.2259 2.33929,5.83011 -1.90166,1.35539 -4.69824,1.61052 -7.53327,1.81832 -2.49439,7.80269 5.78532,7.06956 10.35666,10.80577 0.91767,1.71394 1.23476,3.79636 0.52676,5.15633 -1.025,1.96891 -2.77562,2.5671 -6.00846,2.85712 l -14.73565,0.0625 c -3.0605,-0.28962 -7.58904,-0.95094 -8.61404,-2.91985 -0.708,-1.35997 -0.39091,-3.44239 0.52676,-5.15633 4.57134,-3.73621 12.85105,-3.00308 10.35666,-10.80577 -2.83503,-0.2078 -5.63161,-0.46293 -7.53327,-1.81832 0.82995,-0.60421 1.66342,-2.11817 2.33929,-5.83011 l 0.43169,-2.64278 0.22444,-2.98095 0.25508,-1.23377 c 0.0849,-0.41047 0.49426,-1.70072 1.09805,-2.59508 0.61619,-0.91272 1.13506,-1.54006 2.00005,-2.32992 0.79667,-0.72751 1.56171,-1.05985 2.64506,-1.40623 l 6.7e-4,-2.7e-4 c 1.0004,-0.40314 1.9333,-0.48194 2.3346,-0.44262 0.40129,-0.0391 1.33419,0.0397 2.33459,0.44285 z"
       id="path2983"
       inkscape:connector-curvature="0"
       sodipodi:nodetypes="scsssccccccsccsccccccssscscs" />
  </g>
</svg>
