<?xml version="1.0" encoding="UTF-8" standalone="no"?>
<!-- Created with Inkscape (http://www.inkscape.org/) -->

<svg
   xmlns:dc="http://purl.org/dc/elements/1.1/"
   xmlns:cc="http://creativecommons.org/ns#"
   xmlns:rdf="http://www.w3.org/1999/02/22-rdf-syntax-ns#"
   xmlns:svg="http://www.w3.org/2000/svg"
   xmlns="http://www.w3.org/2000/svg"
   xmlns:sodipodi="http://sodipodi.sourceforge.net/DTD/sodipodi-0.dtd"
   xmlns:inkscape="http://www.inkscape.org/namespaces/inkscape"
   width="27.153919"
   height="28.970703"
   id="svg2"
   version="1.1"
   inkscape:version="0.48.4 r9939"
   sodipodi:docname="search.svg">
  <defs
     id="defs4">
    <inkscape:path-effect
       effect="spiro"
       id="path-effect3759"
       is_visible="true" />
  </defs>
  <sodipodi:namedview
     id="base"
     pagecolor="#ffffff"
     bordercolor="#666666"
     borderopacity="1.0"
     inkscape:pageopacity="0.0"
     inkscape:pageshadow="2"
     inkscape:zoom="15.292308"
     inkscape:cx="17.309325"
     inkscape:cy="15.26611"
     inkscape:document-units="px"
     inkscape:current-layer="a3761"
     showgrid="false"
     fit-margin-top="0"
     fit-margin-left="0"
     fit-margin-right="0"
     fit-margin-bottom="0"
     inkscape:window-width="1301"
     inkscape:window-height="744"
     inkscape:window-x="65"
     inkscape:window-y="24"
     inkscape:window-maximized="1" />
  <metadata
     id="metadata7">
    <rdf:RDF>
      <cc:Work
         rdf:about="">
        <dc:format>image/svg+xml</dc:format>
        <dc:type
           rdf:resource="http://purl.org/dc/dcmitype/StillImage" />
      </cc:Work>
    </rdf:RDF>
  </metadata>
  <g
     inkscape:label="Layer 1"
     inkscape:groupmode="layer"
     id="layer1"
     transform="translate(-113.86573,-632.96659)">
    <path
       sodipodi:type="arc"
       style="fill:#000000;fill-opacity:0;stroke:#ffffff;stroke-width:33.76513672000000099;stroke-miterlimit:4;stroke-opacity:1;stroke-dasharray:none"
       id="path2987"
       sodipodi:cx="248.57143"
       sodipodi:cy="406.64789"
       sodipodi:rx="131.42857"
       sodipodi:ry="131.42857"
       d="m 380,406.64789 c 0,72.586 -58.84258,131.42857 -131.42857,131.42857 -72.586,0 -131.42858,-58.84257 -131.42858,-131.42857 0,-72.586 58.84258,-131.42858 131.42858,-131.42858 72.58599,0 131.42857,58.84258 131.42857,131.42858"
       transform="matrix(0.07325264,0,0,0.07483758,106.53471,613.61984)" />
    <a
       id="a3761"
       transform="matrix(0.05537557,0,0,0.05700877,113.7482,622.89443)"
       style="fill:#e3dedb;stroke:#000000;stroke-width:44.49488449;stroke-linecap:round;stroke-linejoin:round;stroke-miterlimit:4;stroke-opacity:1;stroke-dasharray:none">
      <path
         inkscape:connector-curvature="0"
         inkscape:original-d="m 338.14245,521.9406 c 73.7228,284.64367 94.47409,177.36091 131.76608,140.99004"
         inkscape:path-effect="#path-effect3759"
         id="path3757"
         d="M 338.14245,521.9406 469.90853,662.93064"
         style="fill:#e3dedb;stroke:#ffffff;stroke-width:44.49488448999999690;stroke-linecap:round;stroke-linejoin:round;stroke-miterlimit:4;stroke-opacity:1;stroke-dasharray:none"
         sodipodi:nodetypes="cc" />
    </a>
  </g>
</svg>
